{
  "amd64": {
    "url": "https://bin.equinox.io/a/5RCiPuLKLgg/ngrok-v3-3.0.5-linux-amd64.zip",
    "sha256": "1e64c1d6d7f64e7f5c7b5da2594eff9c68b1ccc428708c727d5889e492d7e0eb"
  },
  "arm": {
    "url": "https://bin.equinox.io/a/8Y7ZrGYNfZj/ngrok-v3-3.0.5-linux-arm.zip",
    "sha256": "7a58117f609e0fdec61e28f6d12aaa85eb88ccfd6d0a709d456c58ccb9b6c342"
  },
  "arm64": {
    "url": "https://bin.equinox.io/a/j3KGdiWLZWT/ngrok-v3-3.0.5-linux-arm64.zip",
    "sha256": "846562c3edf3daa898dfeaedc28e73d124cf8596ee06973ddf1d5870f23eb5fd"
  },
  "i386": {
    "url": "https://bin.equinox.io/a/8aYmCyK13Qg/ngrok-v3-3.0.5-linux-386.zip",
    "sha256": "b89d1ecac14295b8b317f3a7b9d3649ddc548a8297943fd1bbf2d207f17d7a4f"
  },
  "version": "3.0.5"
}
